S
id	word	file
260	σκύλος	bark3.mp3

261	σαξόφωνο	saksofono.mp3
262	σκηνή	skini.mp3
263	σκίουρος	skioyros.mp3
264	σκουλήκι	skouliki.mp3
265	σκυλί	skyli.mp3
267	σοκολάτα	sokolata.mp3
268	σπαθί	spathi.mp3
269	Σταμάτης	stamatis.mp3
270	σταφύλι	stafyli.mp3
271	στολή	stoli.mp3
272	σύννεφο	synnefo.mp3
273	σφεντόνα	sfentona.mp3
274	σφουγγάρι	sfougkari.mp3
275	σφυρί	sfiri.mp3
276	σφυρίχτρα	sfyrixtra.mp3
277	σ	S.mp3
278	στρουθοκάμηλος	stroutho.mp3