SUBS
ID	UNIT	GAME
0_0	Α	
0_1	Ο	
0_2	Η	
0_3	Ι	
0_4	Ε	
0_5	Τ	
0_6	Λ	
0_7	Ν	
0_8		Enotita1_keyboard.swf
1_0	Ω	
1_1	Υ	
1_2	Κ	
1_3	Μ	
1_4	Π	
1_5	Ρ	
1_6	Σ	
1_7	Γ	
2_0	Β	
2_1	Δ	
2_2	Ζ	
2_3	Θ	
2_4	Ξ	
2_5	Φ	
2_6	Χ	
2_7	Ψ	
3_0	3	Enotita1_village.swf
3_1	5	Enotita1_village.swf
3_2	4	Enotita1_village.swf
3_3	2	Enotita1_village.swf
3_4	1	Enotita1_village.swf
