P
id	word	file
205	πουλιά	ouranos3.mp3
206	πεταλούδες	ouranos4.mp3
207	πασχαλίτσαένα	pasha1.mp3
208	πασχαλίτσαδύο	pasha2.mp3
209	πασχαλίτσατρία	pasha3.mp3
210	πασχαλίτσατέσσερα	pasha4.mp3
211	πασχαλίτσαπέντε	pasha5.mp3
212	παππούς	papous.mp3
213	πασχαλίτσαεπτά	pasha7.mp3
214	πασχαλίτσαοκτώ	pasha8.mp3
215	πουλια	bird.mp3

216	πάπια	papia.mp3
217	Πασχαλίνα	pasxalina.mp3
218	πατίνι	patini.mp3
219	παχιά	paxia.mp3
220	πελαργός	pelargos.mp3
221	πεπόνι	peponi.mp3
222	πεπόνια	peponia.mp3
223	περιστέρια	peristeria.mp3
224	πέταλο	petalo.mp3
225	πεταλούδα	petalouda.mp3
226	πέτρα	petra.mp3
227	πηγάδι	pigadi.mp3
228	πιάνο	piano.mp3
229	πιάτο	piato.mp3
230	πίθηκος	pithikos.mp3
231	πινέλο	pinelo.mp3
232	πίτα	pita.mp3
233	πλάτανος	platanos.mp3
234	ποδήλατο	podhlato.mp3
235	πόδι	podi.mp3
236	πόδια	podia.mp3
237	Πολύβιος	polibios.mp3
238	ποντίκι	pontiki.mp3
239	πόρτα	porta.mp3
240	πορτοκάλι	potrokali.mp3
241	πορτοκαλιά	portokalia(001).mp3
242	πορτοκάλια	portokalia.mp3
243	ποτάμι	potami.mp3
244	ποτέ	pote.mp3
245	πουλί	pouli.mp3
246	πρόβατο	probato.mp3
247	πυξίδα	pyksida.mp3
248	πύργος	pyrgos.mp3
337	παξιμάδι	paksimadi.mp3
338	π	P.mp3