HELP_SOUNDS
id	unit	sound
2	Enotita1_baloons.swf	hbaloons1.mp3,#GET_CURRENT_LETTER_SOUND,hbaloons2.mp3
3	Enotita1_box.swf	hbox1.mp3,#GET_CURRENT_LETTER_SOUND,hbox2.mp3
4	Enotita1_forest.swf	hforest1.mp3,#GET_CURRENT_LETTER_SOUND,hforest2.mp3
5	Enotita1_keyboard.swf	htype.mp3
6	Enotita1_paint.swf	hpaint1.mp3,#GET_CURRENT_LETTER_SOUND,hpaint2.mp3
7	Enotita1_river.swf	hriver1.mp3,#GET_CURRENT_LETTER_SOUND,hriver2.mp3
9	Enotita1_village.swf	hxorio.mp3
10	gardener.swf	hkipouros.mp3
11	gardener_2.swf	hkipouros2.mp3
12	gardener_3.swf	hkipouros3.mp3
13	words.swf	hlekseis.mp3
14	fruiterer.swf	hmanabis.mp3
15	tambeles.swf	hmastoras.mp3
16	poet.swf	hpoihths.mp3
17	exercize1_1.swf	hpoetry_pia.mp3
18	exercize2_1.swf	hpoetry_ria.mp3
19	exercize3_1.swf	hpoetry_dia.mp3
20	exercize1_2.swf	hpoetry_word.mp3
21	exercize2_2.swf	hpoetry_word.mp3
22	exercize3_2.swf	hpoetry_word.mp3
