R
id	word	file
249	ραδιόφωνο	radiofono.mp3
250	Ράνια	rania.mp3
251	Ραφαήλ	rafail.mp3
252	ράφι	rafi.mp3
253	ρόδα	roda.mp3
254	ροδάκινο	rodakino.mp3
255	ρόδι	rodi.mp3
256	ρόδια	rodia.mp3
256	ροδιά	rodia(001).mp3
257	ροδιάς	rodias.mp3
258	ρολόι	roloi.mp3
259	ρόλος	rolos.mp3
260	ρ	R.mp3
261	ρ_name	nameR.mp3