Α
id	word	file
1	αγελάδα	agelada.mp3
2	άγκυρα	agkira.mp3
3	αδύνατος	adinatos.mp3
4	αεροπλάνο	aeroplano.mp3
5	αερόστατο	aerostato.mp3
6	αετός	aetos.mp3
7	αλάτι	alati.mp3
8	αλεπού	alepou.mp3
9	άλογο	alogo.mp3
10	αμυγδαλιά	amugdalia.mp3
11	ανανάς	ananas.mp3
12	αναψυκτικό	anapsiktiko.mp3
13	ανεμώνη	anemoni.mp3
14	ανηψιός	anipsios.mp3
15	απαλή	apalh.mp3
16	αποκριά	apokria.mp3
17	αράχνη	araxnh.mp3
18	αστέρια	asteria.mp3
19	αχλάδι	axladi.mp3
20	αχλαδιά	axladia.mp3
21	αχλάδια	axladia(001).mp3
22	αχλαδιάς	axladias.mp3
23	α	A.mp3