Γ
id	word	file
32	γάζα	gaza.mp3
33	γάλα	gala.mp3
34	γάντι	ganti.mp3
35	γαρύφαλλο	garifalo.mp3
36	γάτα	gata.mp3
37	Γεράσιμος	gerasimos.mp3
38	γερό	gero.mp3
39	γέφυρα	gefyra.mp3
40	γίδι	gidi.mp3
41	γόβα	gova.mp3
42	γόμα	goma.mp3
43	γόπα	gopa.mp3
44	γραμματόσημο	grammatoshm.mp3
45	γυαλιά	gialia.mp3
46	γύψος	gipsos.mp3
47	γ	G.mp3