Ι
id	word	file
83	ιβίσκος	iviskos.mp3
84	ιππόκαμπος	ippokampos.mp3
85	ιπποπόταμος	ippopotamos.mp3
86	ίππος	ippos.mp3
87	ιππότης	ippotis.mp3
88	ίριδα	irida.mp3
89	ιτιά	itia.mp3
90	Ιωάννα	ioanna.mp3
91	ι	I.mp3