Λ
id	word	file
135	λαγός	lagos.mp3
136	λάδι	ladi.mp3
137	λάμπα	lampa.mp3
138	Λαμπρινή	lamprini.mp3
139	λεμόνι	lemoni.mp3
140	λεμονιά	lemonia.mp3
550	λεμόνια	lemonia(001).mp3
141	Λένα	lena.mp3
142	λέπια	lepia.mp3
143	Λεωνίδας	leonidas.mp3
144	Λιλίκα	lilika.mp3
145	Λίνα	lina.mp3
146	λιοντάρι	liontari.mp3
147	Λουκάς	lukas.mp3
148	λουκουμάς	loukoumas.mp3
149	λουλούδι	louloudi.mp3
150	λύκος	lykos.mp3
151	λυχνάρι	lixnari.mp3
152	λ	L.mp3
153	λλ	L.mp3
