Ν
id	word	file
180	νάνος	nanos.mp3
181	νάρκισσος	narkisos.mp3
182	Νατάσσα	natassa.mp3
183	νεράιδα	neraida.mp3
184	νερό	nero.mp3
185	νησί	nisi.mp3
186	Νίκη	niki.mp3
187	Νικόλας	nikolas.mp3
188	Νίκος	nikos.mp3
189	Νόντας	nontas.mp3
190	νούφαρο	noufaro.mp3
191	ντάλια	ntalia.mp3
192	ντομάτα	ntomata.mp3
334	νότα	nota.mp3
335	ν	N.mp3